Session 1: Introduction and Visualisation (Answers)
…
Find your path

#here() #from the here packages is a neat magic trick that will find where you files are 
#given that you are in a .Rproject, type help(here) for more info

Read the data

il18 <- read_csv(here("data", "freeIL18.csv")) #read the data
#you can also just read it manually
#il18 <- read_csv("C:/Users/david/Documents/cours_stat/freeIL18.csv")
il18

# A tibble: 73 x 4
   samples `Disease activity` `Free IL-18 (pg/ml)` `Total IL-18 (ng/ml)`
     <dbl> <chr>                             <dbl>                 <dbl>
 1       1 A                                  1.37                0.544 
 2       2 I                                  1.37                0.145 
 3       3 I                                  1.37                0.0893
 4       4 A                                  1.37                1.50  
 5       5 A                                  1.37                0.167 
 6       6 I                                  1.37                0.0478
 7       7 A                                 75.5                22.5   
 8       8 I                                  1.37                1.23  
 9       9 A                                187                  36.1   
10      10 I                                110                  30.0   
# ... with 63 more rows
# i Use `print(n = ...)` to see more rows
…
